…
Read the TSV file
-----------------

``` r
data <- read_tsv("https://github.com/gboyle2/tfcb-homework2/tree/master/data") %>% 
  print()
```

    ## Parsed with column specification:
    ## cols(
    ##   `<!DOCTYPE html>` = col_character()
    ## )

    ## # A tibble: 567 x 1
    ##    `<!DOCTYPE html>`                                                       
    ##    <chr>                                                                   
    ##  1 <!DOCTYPE html>                                                         
    ##  2 "<html lang=\"en\">"                                                    
    ##  3 <head>                                                                  
    ##  4 "<meta charset=\"utf-8\">"                                              
    ##  5 "<link rel=\"dns-prefetch\" href=\"https://assets-cdn.github.com\">"    
    ##  6 "<link rel=\"dns-prefetch\" href=\"https://avatars0.githubusercontent.c~
    ##  7 "<link rel=\"dns-prefetch\" href=\"https://avatars1.githubusercontent.c~
    ##  8 "<link rel=\"dns-prefetch\" href=\"https://avatars2.githubusercontent.c~
    ##  9 "<link rel=\"dns-prefetch\" href=\"https://avatars3.githubusercontent.c~
    ## 10 "<link rel=\"dns-prefetch\" href=\"https://github-cloud.s3.amazonaws.co~
    ## # ... with 557 more rows
